MIPS.vcd
$date
	Fri Jul 21 22:54:28 2023
$end
$version
	Icarus Verilog
$end
$timescale
	1s
$end
$scope module tb $end
$var wire 32 ! outputULA [0:31] $end
$var reg 2 " OpALU [0:1] $end
$var reg 32 # a [0:31] $end
$var reg 32 $ b [0:31] $end
$var reg 1 % clk $end
$var reg 6 & funct [0:5] $end
$scope module MIPS_tb $end
$var wire 2 ' OpALU [0:1] $end
$var wire 32 ( a [0:31] $end
$var wire 32 ) b [0:31] $end
$var wire 1 % clk $end
$var wire 6 * funct [0:5] $end
$var wire 32 + outputULA [0:31] $end
$var wire 4 , inputALU [0:3] $end
$scope module ULAControl_MIPS $end
$var wire 2 - OpALU [0:1] $end
$var wire 1 % clk $end
$var wire 6 . funct [0:5] $end
$var reg 4 / inputALU [0:3] $end
$upscope $end
$scope module ULA_MIPS $end
$var wire 32 0 a [0:31] $end
$var wire 32 1 b [0:31] $end
$var wire 1 % clk $end
$var wire 4 2 inputULA [0:3] $end
$var reg 32 3 outputULA [0:31] $end
$upscope $end
$upscope $end
$upscope $end
$enddefinitions $end
$comment Show the parameter values. $end
$dumpall
$end
#0
$dumpvars
bx 3
b10 2
b11 1
b11 0
b10 /
b0 .
b0 -
b10 ,
bx +
b0 *
b11 )
b11 (
b0 '
b0 &
0%
b11 $
b11 #
b0 "
bx !
$end
#1
b110 !
b110 +
b110 3
1%
#2
0%
b1 #
b1 (
b1 0
b100000 &
b100000 *
b100000 .
b10 "
b10 '
b10 -
#3
b100 !
b100 +
b100 3
1%
#4
b110 ,
b110 /
b110 2
0%
b1 $
b1 )
b1 1
b11 #
b11 (
b11 0
b100010 &
b100010 *
b100010 .
#5
b10 !
b10 +
b10 3
1%
#6
b0 ,
b0 /
b0 2
0%
b100100 &
b100100 *
b100100 .
#7
b1 !
b1 +
b1 3
1%
#8
b1 ,
b1 /
b1 2
0%
b100101 &
b100101 *
b100101 .
#9
b11 !
b11 +
b11 3
1%
#10
b111 ,
b111 /
b111 2
0%
b11 $
b11 )
b11 1
b1 #
b1 (
b1 0
b101010 &
b101010 *
b101010 .
#11
b1 !
b1 +
b1 3
1%
